{
  "data": [    
    {
      "id": 11,
      "fullName": "Carlos Perez",
      "firstName": "Carlos",
      "middleName": "Bautista",
      "lastName": "Perez",
      "suffixName": null,
      "street": "123 Rizal St.",
      "barangay": "San Juan",
      "city": "Manila",
      "province": "Metro Manila",
      "memberCode": "83006",
      "address": "San Juan, Manila, Metro Manila",
      "age": 29,
      "contactNumber": "09085456782",
      "genderId": 1,
      "emailAddress": "carlos@email.com",
      "loanTypeId": 1,
      "monthsMissed": 0,
      "fieldVisitDate": null,
      "fieldVisitTime": null,
      "remarks": 2,
      "promiseToPayDate": null,
      "branchId": 3
    },
    {
      "id": 12,
      "fullName": "Isabel Ortega",
      "firstName": "Isabel",
      "middleName": "Ramirez",
      "lastName": "Ortega",
      "suffixName": null,
      "street": "099 Mabini St.",
      "barangay": "Poblacion",
      "city": "Muntinlupa",
      "province": "Metro Manila",
      "memberCode": "83206",
      "address": "Poblacion, Muntinlupa, Metro Manila",
      "age": 32,
      "contactNumber": "09367654321",
      "genderId": 2,
      "emailAddress": "isabel@email.com",
      "loanTypeId": 3,
      "monthsMissed": 0,
      "fieldVisitDate": null,
      "fieldVisitTime": null,
      "remarks": 1,
      "promiseToPayDate": null,
      "branchId": 1
    },
    {
      "id": 13,
      "fullName": "Renato Reyes",
      "firstName": "Renato",
      "middleName": "Santos",
      "lastName": "Reyes",
      "suffixName": "Sr.",
      "street": "076 Quezon Ave.",
      "barangay": "Tuktukan",
      "city": "Taguig",
      "province": "Metro Manila",
      "memberCode": "83007",
      "address": "Tuktukan, Taguig, Metro Manila",
      "age": 24,
      "contactNumber": "09123456701",
      "genderId": 1,
      "emailAddress": "renato@email.com",
      "loanTypeId": 2,
      "monthsMissed": 1,
      "fieldVisitDate": null,
      "fieldVisitTime": null,
      "remarks": 0,
      "promiseToPayDate": null,
      "branchId": 2
    },
    {
      "id": 14,
      "fullName": "Maria Lopez",
      "firstName": "Maria",
      "middleName": "Gonzales",
      "lastName": "Lopez",
      "suffixName": null,
      "street": "077 Flower St.",
      "barangay": "San Lorenzo",
      "city": "Muntinlupa",
      "province": "Metro Manila",
      "memberCode": "83207",
      "address": "San Lorenzo, Muntinlupa, Metro Manila",
      "age": 26,
      "contactNumber": "09414567329",
      "genderId": 2,
      "emailAddress": "maria@email.com",
      "loanTypeId": 1,
      "monthsMissed": 0,
      "fieldVisitDate": null,
      "fieldVisitTime": null,
      "remarks": 3,
      "promiseToPayDate": null,
      "branchId": 3
    },
    {
      "id": 15,
      "fullName": "Eduardo Garcia",
      "firstName": "Eduardo",
      "middleName": "Santos",
      "lastName": "Garcia",
      "suffixName": "II",
      "street": "077 Rizal St.",
      "barangay": "San Isidro",
      "city": "Taguig",
      "province": "Metro Manila",
      "memberCode": "83008",
      "address": "San Isidro, Taguig, Metro Manila",
      "age": 35,
      "contactNumber": "09181234567",
      "genderId": 1,
      "emailAddress": "eduardo@email.com",
      "loanTypeId": 3,
      "monthsMissed": 0,
      "fieldVisitDate": null,
      "fieldVisitTime": null,
      "remarks": 2,
      "promiseToPayDate": null,
      "branchId": 1
    },
    {
      "id": 16,
      "fullName": "Catherine Reyes",
      "firstName": "Catherine",
      "middleName": "Santos",
      "lastName": "Reyes",
      "suffixName": null,
      "street": "045 Amorsolo St.",
      "barangay": "San Juan",
      "city": "Cebu City",
      "province": "Cebu",
      "memberCode": "83208",
      "address": "San Juan, Cebu City, Cebu",
      "age": 27,
      "contactNumber": "09345678912",
      "genderId": 2,
      "emailAddress": "catherine@email.com",
      "loanTypeId": 1,
      "monthsMissed": 1,
      "fieldVisitDate": null,
      "fieldVisitTime": null,
      "remarks": 0,
      "promiseToPayDate": null,
      "branchId": 2
    },
    {
      "id": 17,
      "fullName": "Manuel Bautista",
      "firstName": "Manuel",
      "middleName": "Alvarado",
      "lastName": "Bautista",
      "suffixName": null,
      "street": "080 Pulang Lupa",
      "barangay": "Poblacion",
      "city": "Valenzuela",
      "province": "Metro Manila",
      "memberCode": "83209",
      "address": "Poblacion, Valenzuela, Metro Manila",
      "age": 21,
      "contactNumber": "09176654321",
      "genderId": 1,
      "emailAddress": "manuel@email.com",
      "loanTypeId": 2,
      "monthsMissed": 0,
      "fieldVisitDate": null,
      "fieldVisitTime": null,
      "remarks": 2,
      "promiseToPayDate": null,
      "branchId": 3
    },
    {
      "id": 18,
      "fullName": "Angelica Cruz",
      "firstName": "Angelica",
      "middleName": "Santos",
      "lastName": "Cruz",
      "suffixName": null,
      "street": "042 Sunshine St.",
      "barangay": "San Isidro",
      "city": "Para単aque",
      "province": "Metro Manila",
      "memberCode": "83009",
      "address": "San Isidro, Para単aque, Metro Manila",
      "age": 28,
      "contactNumber": "09412345678",
      "genderId": 2,
      "emailAddress": "angelica@email.com",
      "loanTypeId": 1,
      "monthsMissed": 3,
      "fieldVisitDate": null,
      "fieldVisitTime": null,
      "remarks": 1,
      "promiseToPayDate": null,
      "branchId": 1
    },
    {
      "id": 19,
      "fullName": "Fernando Mendoza",
      "firstName": "Fernando",
      "middleName": "Torres",
      "lastName": "Mendoza",
      "suffixName": null,
      "street": "084 Main St.",
      "barangay": "San Francisco",
      "city": "Las Pi単as",
      "province": "Metro Manila",
      "memberCode": "83210",
      "address": "San Francisco, Las Pi単as, Metro Manila",
      "age": 29,
      "contactNumber": "09072233445",
      "genderId": 1,
      "emailAddress": "fernando@email.com",
      "loanTypeId": 3,
      "monthsMissed": 1,
      "fieldVisitDate": null,
      "fieldVisitTime": null,
      "remarks": 0,
      "promiseToPayDate": null,
      "branchId": 2
    },
    {
      "id": 20,
      "fullName": "Julian Mendoza",
      "firstName": "Julian",
      "middleName": "De La Cruz",
      "lastName": "Mendoza",
      "suffixName": null,
      "street": "095 Quezon St.",
      "barangay": "San Antonio",
      "city": "Manila",
      "province": "Metro Manila",
      "memberCode": "83010",
      "address": "San Antonio, Manila, Metro Manila",
      "age": 30,
      "contactNumber": "09123456782",
      "genderId": 1,
      "emailAddress": "julian@email.com",
      "loanTypeId": 3,
      "monthsMissed": 2,
      "fieldVisitDate": null,
      "fieldVisitTime": null,
      "remarks": 1,
      "promiseToPayDate": null,
      "branchId": 1
    }
  ],
  "page": 2,
  "totalPages": 2,
  "totalCount": 20,
  "hasPreviousPage": true,
  "hasNextPage": false,
  "failed": false,
  "message": null,
  "succeeded": true
}
