{
  "data": [
    {
      "id": 1,
      "fullName": "Lance Chester Malaluan",
      "firstName": "Lance Chester",
      "middleName": "Garcia",
      "lastName": "Malaluan",
      "suffixName": null,
      "street": "045 National Road",
      "barangay": "Dagatan",
      "city": "Taysan",
      "province": "Batangas",
      "memberCode": "83002",
      "address": "Dagatan, Taysan, Batangas",
      "age": 23,
      "contactNumber": "09393019527",
      "genderId": 1,
      "emailAddress": "lance@email.com",
      "loanTypeId": 3,
      "monthsMissed": 1,
      "fieldVisitDate": null,
      "fieldVisitTime": null,
      "remarks": 1,
      "promiseToPayDate": null,
      "branchId": 1
    },
    {
      "id": 2,
      "fullName": "Geraldine Candelaria",
      "firstName": "Geraldine",
      "middleName": "Alpasan",
      "lastName": "Candelaria",
      "suffixName": "Jr.",
      "street": "022",
      "barangay": "Dila",
      "city": "City of Santa Rosa",
      "province": "Laguna",
      "memberCode": "83200",
      "address": "Dila, Sta. Rosa, Laguna",
      "age": 23,
      "contactNumber": "09466065847",
      "genderId": 2,
      "emailAddress": "nads@email.com",
      "loanTypeId": 1,
      "monthsMissed": 2,
      "fieldVisitDate": null,
      "fieldVisitTime": null,
      "remarks": 2,
      "promiseToPayDate": null,
      "branchId": 3
    },
    {
      "id": 3,
      "fullName": "Jonelle Ervyn Mesa",
      "firstName": "Jonelle Ervyn",
      "middleName": "De Torres",
      "lastName": "Mesa",
      "suffixName": "IV",
      "street": "022",
      "barangay": "Balubal",
      "city": "Sariaya",
      "province": "Quezon",
      "memberCode": "83201",
      "address": "Balubal, Sariaya, Quezon",
      "age": 24,
      "contactNumber": "09493256483",
      "genderId": 1,
      "emailAddress": "jem@email.com",
      "loanTypeId": 2,
      "monthsMissed": 0,
      "fieldVisitDate": null,
      "fieldVisitTime": null,
      "remarks": 1,
      "promiseToPayDate": null,
      "branchId": 2
    },
    {
      "id": 4,
      "fullName": "Mark Antonio Dela Cruz",
      "firstName": "Mark Antonio",
      "middleName": "Soriano",
      "lastName": "Dela Cruz",
      "suffixName": null,
      "street": "051 Nagtahan St.",
      "barangay": "San Jose",
      "city": "City of Tanauan",
      "province": "Batangas",
      "memberCode": "83003",
      "address": "San Jose, Tanauan, Batangas",
      "age": 25,
      "contactNumber": "09223547856",
      "genderId": 1,
      "emailAddress": "mark@email.com",
      "loanTypeId": 2,
      "monthsMissed": 3,
      "fieldVisitDate": null,
      "fieldVisitTime": null,
      "remarks": 0,
      "promiseToPayDate": null,
      "branchId": 2
    },
    {
      "id": 5,
      "fullName": "Emiliana Rivera",
      "firstName": "Emiliana",
      "middleName": "Perez",
      "lastName": "Rivera",
      "suffixName": "III",
      "street": "010 Green Acres",
      "barangay": "Longos",
      "city": "Bi単an",
      "province": "Laguna",
      "memberCode": "83202",
      "address": "Longos, Bi単an, Laguna",
      "age": 28,
      "contactNumber": "09392487639",
      "genderId": 2,
      "emailAddress": "emiliana@email.com",
      "loanTypeId": 1,
      "monthsMissed": 0,
      "fieldVisitDate": null,
      "fieldVisitTime": null,
      "remarks": 3,
      "promiseToPayDate": null,
      "branchId": 3
    },
    {
      "id": 6,
      "fullName": "Ricardo Domingo",
      "firstName": "Ricardo",
      "middleName": "Gonzales",
      "lastName": "Domingo",
      "suffixName": null,
      "street": "112 Tandang Sora",
      "barangay": "Poblacion",
      "city": "Cabuyao",
      "province": "Laguna",
      "memberCode": "83203",
      "address": "Poblacion, Cabuyao, Laguna",
      "age": 27,
      "contactNumber": "09312347689",
      "genderId": 1,
      "emailAddress": "ricardo@email.com",
      "loanTypeId": 3,
      "monthsMissed": 2,
      "fieldVisitDate": null,
      "fieldVisitTime": null,
      "remarks": 0,
      "promiseToPayDate": null,
      "branchId": 2
    },
    {
      "id": 7,
      "fullName": "Reina Madrigal",
      "firstName": "Reina",
      "middleName": "Lacuna",
      "lastName": "Madrigal",
      "suffixName": "Jr.",
      "street": "034 Maginhawa St.",
      "barangay": "Dila",
      "city": "Santa Rosa",
      "province": "Laguna",
      "memberCode": "83204",
      "address": "Dila, Sta. Rosa, Laguna",
      "age": 22,
      "contactNumber": "09234567890",
      "genderId": 2,
      "emailAddress": "reina@email.com",
      "loanTypeId": 1,
      "monthsMissed": 1,
      "fieldVisitDate": null,
      "fieldVisitTime": null,
      "remarks": 2,
      "promiseToPayDate": null,
      "branchId": 3
    },
    {
      "id": 8,
      "fullName": "Jeremiah Santos",
      "firstName": "Jeremiah",
      "middleName": "Valdez",
      "lastName": "Santos",
      "suffixName": null,
      "street": "042 Broadway Ave.",
      "barangay": "Maligaya",
      "city": "Dasmari単as",
      "province": "Cavite",
      "memberCode": "83004",
      "address": "Maligaya, Dasmari単as, Cavite",
      "age": 30,
      "contactNumber": "09123456789",
      "genderId": 1,
      "emailAddress": "jeremiah@email.com",
      "loanTypeId": 2,
      "monthsMissed": 0,
      "fieldVisitDate": null,
      "fieldVisitTime": null,
      "remarks": 1,
      "promiseToPayDate": null,
      "branchId": 1
    },
    {
      "id": 9,
      "fullName": "Alicia Santiago",
      "firstName": "Alicia",
      "middleName": "Mendoza",
      "lastName": "Santiago",
      "suffixName": null,
      "street": "080 Tanauan Road",
      "barangay": "Bagumbayan",
      "city": "Taguig",
      "province": "Metro Manila",
      "memberCode": "83205",
      "address": "Bagumbayan, Taguig, Metro Manila",
      "age": 33,
      "contactNumber": "09289898888",
      "genderId": 2,
      "emailAddress": "alicia@email.com",
      "loanTypeId": 3,
      "monthsMissed": 2,
      "fieldVisitDate": null,
      "fieldVisitTime": null,
      "remarks": 0,
      "promiseToPayDate": null,
      "branchId": 1
    },
    {
      "id": 10,
      "fullName": "Joshua Cruz",
      "firstName": "Joshua",
      "middleName": "Gomez",
      "lastName": "Cruz",
      "suffixName": "II",
      "street": "091 Barangay Road",
      "barangay": "San Antonio",
      "city": "Quezon City",
      "province": "Metro Manila",
      "memberCode": "83005",
      "address": "San Antonio, Quezon City, Metro Manila",
      "age": 26,
      "contactNumber": "09127635420",
      "genderId": 1,
      "emailAddress": "joshua@email.com",
      "loanTypeId": 2,
      "monthsMissed": 1,
      "fieldVisitDate": null,
      "fieldVisitTime": null,
      "remarks": 1,
      "promiseToPayDate": null,
      "branchId": 2
    }
  ],
  "page": 1,
  "totalPages": 2,
  "totalCount": 20,
  "hasPreviousPage": false,
  "hasNextPage": true,
  "failed": false,
  "message": null,
  "succeeded": true
}
